generated/ALU.vcd
$date
2022-10-19T12:00+0000
$end
$version
0.2
$end
$comment

$end
$timescale 1ns  $end
$scope module ALU $end
 $var wire 64 ! _GEN_16 $end
 $var wire 64 " _GEN_10 $end
 $var wire 1 # _GEN_2 $end
 $var wire 1 $ _T $end
 $var wire 1 % _GEN_5 $end
 $var wire 1 & _GEN_13 $end
 $var wire 32 ' io_oper2 $end
 $var wire 64 ( _GEN_8 $end
 $var wire 6 ) io_sel $end
 $var wire 64 * _GEN_12 $end
 $var wire 1 + _GEN_15 $end
 $var wire 1 , _GEN_7 $end
 $var wire 64 - _GEN_18 $end
 $var wire 32 . io_oper1 $end
 $var wire 32 / _GEN_4 $end
 $var wire 1 0 clock $end
 $var wire 32 1 io_result $end
 $var wire 1 2 _GEN_17 $end
 $var wire 1 3 _GEN_11 $end
 $var wire 32 4 _GEN_20 $end
 $var wire 64 5 _GEN_14 $end
 $var wire 32 6 _GEN_6 $end
 $var wire 1 7 _GEN_9 $end
 $var wire 1 8 reset $end
 $var wire 1 9 _GEN_3 $end
 $var wire 1 : io_comparisonResult $end
$upscope $end
$enddefinitions $end
$dumpvars
0%
b0000000000000000000000000000000000000000000000000000000000000000 -
0&
b00000000000000000000000000000000 '
b00000000000000000000000000000000 6
b00000000000000000000000000000000 .
b000000 )
b0000000000000000000000000000000000000000000000000000000000000000 5
b00000000000000000000000000000000 /
b0000000000000000000000000000000000000000000000000000000000000000 !
b0000000000000000000000000000000000000000000000000000000000000000 (
00
b00000000000000000000000000000000 1
07
b0000000000000000000000000000000000000000000000000000000000000000 *
b0000000000000000000000000000000000000000000000000000000000000000 "
08
0#
09
0+
0:
02
0,
0$
03
b00000000000000000000000000000000 4
$end
#0
18
1$
#1
10
#6
00
#11
10
#16
00
#21
10
#26
00
#31
10
#36
00
#41
10
#46
00
b0000000000000000000000000000000000000000000000000000000000001111 -
b00000000000000000000000000001111 4
b00000000000000000000000000001111 1
b00000000000000000000000000000101 .
08
b00000000000000000000000000001010 '
#51
10
#56
b1111111111111111111111111111111111111111111111111111111111111011 !
00
b1111111111111111111111111111111111111111111111111111111111111011 -
b11111111111111111111111111111011 4
b11111111111111111111111111111011 1
0$
b000001 )
#61
10
#66
b0000000000000000000000000000000000000000000000000000000000110010 !
00
b0000000000000000000000000000000000000000000000000000000000110010 -
b00000000000000000000000000110010 4
b00000000000000000000000000110010 1
b0000000000000000000000000000000000000000000000000000000000110010 5
b000010 )
#71
10
#76
b0000000000000000000000000000000000000000000000000000000000000110 !
00
b0000000000000000000000000000000000000000000000000000000000000110 -
b00000000000000000000000000000110 4
b00000000000000000000000000000110 1
b0000000000000000000000000000000000000000000000000000000000000110 5
b0000000000000000000000000000000000000000000000000000000000000110 *
b00000000000000000000000000000001 '
b000011 )
#81
10
#86
b0000000000000000000000000000000000000000000000000000000000000101 !
00
b0000000000000000000000000000000000000000000000000000000000000101 -
b0000000000000000000000000000000000000000000000000000000000000101 "
b00000000000000000000000000000101 4
b00000000000000000000000000001111 .
b00000000000000000000000000000101 1
b0000000000000000000000000000000000000000000000000000000000000101 5
b0000000000000000000000000000000000000000000000000000000000000101 *
b00000000000000000000000000001010 '
b000100 )
#91
10
#96
b0000000000000000000000000000000000000000000000000000000000001010 !
00
b0000000000000000000000000000000000000000000000000000000000001010 -
b0000000000000000000000000000000000000000000000000000000000001010 "
b00000000000000000000000000001010 4
b00000000000000000000000000000101 .
b00000000000000000000000000001010 1
b0000000000000000000000000000000000000000000000000000000000001010 5
b0000000000000000000000000000000000000000000000000000000000001010 *
b00000000000000000000000000000010 '
b0000000000000000000000000000000000000000000000000000000000001010 (
b000101 )
#101
10
#106
b0000000000000000000000000000000000000000000000000000000001100100 !
00
b0000000000000000000000000000000000000000000000000000000001100100 -
b0000000000000000000000000000000000000000000000000000000001100100 "
b00000000000000000000000001100100 4
b00000000000000000000000001100100 1
b0000000000000000000000000000000000000000000000000000000001100100 5
b0000000000000000000000000000000000000000000000000000000001100100 *
b00000000000000000000000001100100 '
b00000000000000000000000001100100 6
b0000000000000000000000000000000000000000000000000000000001100100 (
b010000 )
#111
10
#116
b0000000000000000000000000000000000000000000000000000000000110010 -
b00000000000000000000000000110010 4
b00000000000000000000000000110010 .
b0000000000000000000000000000000000000000000000000000000000110010 5
b00000000000000000000000000001010 '
b00000000000000000000000000110010 6
b0000000000000000000000000000000000000000000000000000000000110010 (
b00000000000000000000000000110010 /
b010011 )
b0000000000000000000000000000000000000000000000000000000000110010 !
00
b0000000000000000000000000000000000000000000000000000000000110010 "
b00000000000000000000000000110010 1
b0000000000000000000000000000000000000000000000000000000000110010 *
#121
10
#126
13
b0000000000000000000000000000000000000000000000000000000000000000 -
1%
b00000000000000000000000000000000 4
b00000000000000000000000000000101 .
1&
b0000000000000000000000000000000000000000000000000000000000000000 5
b00000000000000000000000000000101 '
b00000000000000000000000000000000 6
b0000000000000000000000000000000000000000000000000000000000000000 (
17
b00000000000000000000000000000000 /
b100001 )
b0000000000000000000000000000000000000000000000000000000000000000 !
00
b0000000000000000000000000000000000000000000000000000000000000000 "
b00000000000000000000000000000000 1
12
b0000000000000000000000000000000000000000000000000000000000000000 *
19
1+
1:
1,
#131
10
#136
03
00
0%
0&
02
b00000000000000000000000001100100 '
09
0+
0:
07
0,
#141
10
#146
13
00
1%
b11111111111111111111111111111011 .
1&
1#
12
19
1+
1:
17
1,
b100010 )
#151
10
#156
03
00
0%
b00000000000000000000000000000101 .
0&
0#
02
09
0+
0:
07
0,
