generated/ALU.vcd
$date
2022-10-26T12:03+0000
$end
$version
0.2
$end
$comment

$end
$timescale 1ns  $end
$scope module ALU $end
 $var wire 64 ! _GEN_16 $end
 $var wire 64 " _GEN_10 $end
 $var wire 32 # _GEN_2 $end
 $var wire 1 $ _T $end
 $var wire 1 % _GEN_5 $end
 $var wire 1 & _GEN_13 $end
 $var wire 32 ' io_oper2 $end
 $var wire 64 ( _GEN_8 $end
 $var wire 6 ) io_sel $end
 $var wire 64 * _GEN_12 $end
 $var wire 1 + _GEN_15 $end
 $var wire 1 , _GEN_7 $end
 $var wire 1 - _GEN_1 $end
 $var wire 32 . io_oper1 $end
 $var wire 32 / _GEN_4 $end
 $var wire 1 0 clock $end
 $var wire 32 1 io_result $end
 $var wire 1 2 _GEN_11 $end
 $var wire 64 3 _GEN_14 $end
 $var wire 64 4 _GEN_6 $end
 $var wire 1 5 _GEN_9 $end
 $var wire 1 6 reset $end
 $var wire 1 7 _GEN_3 $end
 $var wire 1 8 io_comparisonResult $end
$upscope $end
$enddefinitions $end
$dumpvars
0%
b0000000000000000000000000000000000000000000000000000000000000000 4
0&
05
b00000000000000000000000000000000 '
0-
b00000000000000000000000000000000 .
b000000 )
b00000000000000000000000000000000 /
b0000000000000000000000000000000000000000000000000000000000000000 !
b0000000000000000000000000000000000000000000000000000000000000000 (
06
00
b00000000000000000000000000000000 1
07
b00000000000000000000000000000000 #
b0000000000000000000000000000000000000000000000000000000000000000 *
b0000000000000000000000000000000000000000000000000000000000000000 "
08
0+
b0000000000000000000000000000000000000000000000000000000000000000 3
02
0,
0$
$end
#0
16
1$
#1
10
#6
00
#11
10
#16
00
#21
10
#26
00
#31
10
#36
00
#41
10
#46
b0000000000000000000000000000000000000000000000000000000000001111 !
00
b00000000000000000000000000001111 1
b00000000000000000000000000000101 .
b00000000000000000000000000001010 '
06
#51
10
#56
b0000000000000000000000000000000000000000000000000000000000000100 3
00
b0000000000000000000000000000000000000000000000000000000000000100 !
b00000000000000000000000000000100 1
b00000000000000000000000000000001 '
0$
b000001 )
#61
10
#66
b0000000000000000000000000000000000000000000000000000000000110010 3
00
b0000000000000000000000000000000000000000000000000000000000110010 !
b00000000000000000000000000110010 1
b0000000000000000000000000000000000000000000000000000000000110010 *
b00000000000000000000000000001010 '
b000010 )
#71
10
#76
b0000000000000000000000000000000000000000000000000000000000000110 3
00
b0000000000000000000000000000000000000000000000000000000000000110 !
b0000000000000000000000000000000000000000000000000000000000000110 "
b00000000000000000000000000000110 1
b0000000000000000000000000000000000000000000000000000000000000110 *
b00000000000000000000000000000001 '
b000011 )
#81
10
#86
b0000000000000000000000000000000000000000000000000000000000000101 3
00
b0000000000000000000000000000000000000000000000000000000000000101 !
b0000000000000000000000000000000000000000000000000000000000000101 "
b00000000000000000000000000000101 1
b00000000000000000000000000001111 .
b0000000000000000000000000000000000000000000000000000000000000101 *
b00000000000000000000000000001010 '
b0000000000000000000000000000000000000000000000000000000000000101 (
b000100 )
#91
10
#96
b0000000000000000000000000000000000000000000000000000000000001010 3
00
b0000000000000000000000000000000000000000000000000000000000001010 !
b0000000000000000000000000000000000000000000000000000000000001010 4
b0000000000000000000000000000000000000000000000000000000000001010 "
b00000000000000000000000000000101 .
b00000000000000000000000000001010 1
b0000000000000000000000000000000000000000000000000000000000001010 *
b00000000000000000000000000000010 '
b0000000000000000000000000000000000000000000000000000000000001010 (
b000101 )
#101
10
#106
b0000000000000000000000000000000000000000000000000000000001100100 3
00
b0000000000000000000000000000000000000000000000000000000001100100 !
b0000000000000000000000000000000000000000000000000000000001100100 4
b0000000000000000000000000000000000000000000000000000000001100100 "
b00000000000000000000000001100100 1
b0000000000000000000000000000000000000000000000000000000001100100 *
b00000000000000000000000001100100 '
b0000000000000000000000000000000000000000000000000000000001100100 (
b00000000000000000000000001100100 /
b010000 )
#111
10
#116
b0000000000000000000000000000000000000000000000000000000000110010 3
00
b0000000000000000000000000000000000000000000000000000000000110010 !
b0000000000000000000000000000000000000000000000000000000000110010 4
b0000000000000000000000000000000000000000000000000000000000110010 "
b00000000000000000000000000110010 .
b00000000000000000000000000110010 1
b00000000000000000000000000110010 #
b0000000000000000000000000000000000000000000000000000000000110010 *
b00000000000000000000000000001010 '
b0000000000000000000000000000000000000000000000000000000000110010 (
b00000000000000000000000000110010 /
b010011 )
#121
10
#126
b0000000000000000000000000000000000000000000000000000000000000000 3
1-
1%
b0000000000000000000000000000000000000000000000000000000000000000 4
b00000000000000000000000000000101 .
1&
15
b00000000000000000000000000000101 '
b0000000000000000000000000000000000000000000000000000000000000000 (
17
b00000000000000000000000000000000 /
b100001 )
b0000000000000000000000000000000000000000000000000000000000000000 !
00
b0000000000000000000000000000000000000000000000000000000000000000 "
b00000000000000000000000000000000 1
18
b00000000000000000000000000000000 #
12
b0000000000000000000000000000000000000000000000000000000000000000 *
1+
1,
#131
10
#136
00
0-
0%
0&
05
02
08
b00000000000000000000000001100100 '
0+
07
0,
