generated/ALU.vcd
$date
2022-10-29T12:06+0000
$end
$version
0.2
$end
$comment

$end
$timescale 1ns  $end
$scope module ALU $end
 $var wire 1 ! _GEN_16 $end
 $var wire 1 " _GEN_10 $end
 $var wire 1 # _GEN_2 $end
 $var wire 1 $ _T $end
 $var wire 32 % _GEN_5 $end
 $var wire 64 & _GEN_13 $end
 $var wire 32 ' io_oper2 $end
 $var wire 1 ( _GEN_8 $end
 $var wire 6 ) io_sel $end
 $var wire 1 * _GEN_12 $end
 $var wire 64 + _GEN_15 $end
 $var wire 64 , _GEN_7 $end
 $var wire 32 - io_oper1 $end
 $var wire 1 . _GEN_4 $end
 $var wire 1 / clock $end
 $var wire 32 0 io_result $end
 $var wire 64 1 _GEN_17 $end
 $var wire 64 2 _GEN_11 $end
 $var wire 1 3 _GEN_14 $end
 $var wire 1 4 _GEN_6 $end
 $var wire 64 5 _GEN_9 $end
 $var wire 1 6 reset $end
 $var wire 32 7 _GEN_3 $end
 $var wire 1 8 io_comparisonResult $end
$upscope $end
$enddefinitions $end
$dumpvars
04
b00000000000000000000000000000000 '
b0000000000000000000000000000000000000000000000000000000000000000 &
b0000000000000000000000000000000000000000000000000000000000000000 5
b000000 )
0.
0/
b00000000000000000000000000000000 0
06
b00000000000000000000000000000000 7
0!
0(
0"
08
b0000000000000000000000000000000000000000000000000000000000000000 1
0#
0*
b0000000000000000000000000000000000000000000000000000000000000000 2
b0000000000000000000000000000000000000000000000000000000000000000 +
b00000000000000000000000000000000 -
b00000000000000000000000000000000 %
03
0$
b0000000000000000000000000000000000000000000000000000000000000000 ,
$end
#0
16
1$
#1
1/
#6
0/
#11
1/
#16
0/
#21
1/
#26
0/
#31
1/
#36
0/
#41
1/
#46
b00000000000000000000000000001111 0
b00000000000000000000000000000101 -
b0000000000000000000000000000000000000000000000000000000000001111 1
b00000000000000000000000000001010 '
06
0/
#51
1/
#56
b00000000000000000000000000000100 0
b0000000000000000000000000000000000000000000000000000000000000100 1
b00000000000000000000000000000001 '
0$
b0000000000000000000000000000000000000000000000000000000000000100 +
0/
b000001 )
#61
1/
#66
b00000000000000000000000000110010 0
b0000000000000000000000000000000000000000000000000000000000110010 1
b0000000000000000000000000000000000000000000000000000000000110010 &
b00000000000000000000000000001010 '
b0000000000000000000000000000000000000000000000000000000000110010 +
0/
b000010 )
#71
1/
#76
b00000000000000000000000000000110 0
b0000000000000000000000000000000000000000000000000000000000000110 1
b0000000000000000000000000000000000000000000000000000000000000110 &
b0000000000000000000000000000000000000000000000000000000000000110 2
b00000000000000000000000000000001 '
b0000000000000000000000000000000000000000000000000000000000000110 +
0/
b000011 )
#81
1/
#86
b00000000000000000000000000000101 0
b00000000000000000000000000001111 -
b0000000000000000000000000000000000000000000000000000000000000101 1
b0000000000000000000000000000000000000000000000000000000000000101 &
b0000000000000000000000000000000000000000000000000000000000000101 5
b0000000000000000000000000000000000000000000000000000000000000101 2
b00000000000000000000000000001010 '
b0000000000000000000000000000000000000000000000000000000000000101 +
0/
b000100 )
#91
1/
#96
b00000000000000000000000000001010 0
b00000000000000000000000000000101 -
b0000000000000000000000000000000000000000000000000000000000001010 1
b0000000000000000000000000000000000000000000000000000000000001010 &
b0000000000000000000000000000000000000000000000000000000000001010 5
b0000000000000000000000000000000000000000000000000000000000001010 2
b00000000000000000000000000000010 '
b0000000000000000000000000000000000000000000000000000000000001010 +
0/
b0000000000000000000000000000000000000000000000000000000000001010 ,
b000101 )
#101
1/
#106
b00000000000000000000000001100100 0
b00000000000000000000000001100100 %
b0000000000000000000000000000000000000000000000000000000001100100 1
b0000000000000000000000000000000000000000000000000000000001100100 &
b0000000000000000000000000000000000000000000000000000000001100100 5
b0000000000000000000000000000000000000000000000000000000001100100 2
b00000000000000000000000001100100 '
b0000000000000000000000000000000000000000000000000000000001100100 +
0/
b0000000000000000000000000000000000000000000000000000000001100100 ,
b010000 )
#111
1/
#116
b00000000000000000000000000110010 0
b00000000000000000000000000110010 -
b00000000000000000000000000110010 %
b0000000000000000000000000000000000000000000000000000000000110010 1
b0000000000000000000000000000000000000000000000000000000000110010 &
b0000000000000000000000000000000000000000000000000000000000110010 5
b0000000000000000000000000000000000000000000000000000000000110010 2
b00000000000000000000000000001010 '
b0000000000000000000000000000000000000000000000000000000000110010 +
b00000000000000000000000000110010 7
0/
b0000000000000000000000000000000000000000000000000000000000110010 ,
b010011 )
#121
1/
#126
13
b00000000000000000000000000000101 -
b00000000000000000000000000000000 %
14
1.
b0000000000000000000000000000000000000000000000000000000000000000 &
b0000000000000000000000000000000000000000000000000000000000000000 5
b00000000000000000000000000000101 '
1(
b00000000000000000000000000000000 7
0/
b100001 )
1!
b00000000000000000000000000000000 0
1"
b0000000000000000000000000000000000000000000000000000000000000000 1
18
1#
b0000000000000000000000000000000000000000000000000000000000000000 2
1*
b0000000000000000000000000000000000000000000000000000000000000000 +
b0000000000000000000000000000000000000000000000000000000000000000 ,
#131
1/
#136
03
0!
04
0"
0.
08
0#
0*
b00000000000000000000000001100100 '
0(
0/
#141
1/
#146
13
1!
14
1"
1.
18
1#
1*
1(
0/
b100000 )
