generated/CPUTop.vcd
$date
2022-10-28T10:13+0000
$end
$version
0.2
$end
$comment

$end
$timescale 1ns  $end
$scope module CPUTop $end
 $var wire 32 & io_testerDataMemDataRead $end
 $var wire 1 I io_testerDataMemWriteEnable $end
 $var wire 1 O registerFile $end
 $var wire 1 "" io_testerProgMemEnable $end
 $var wire 1 "C io_testerProgMemWriteEnable $end
 $var wire 32 "G io_testerProgMemDataWrite $end
 $var wire 1 "J programMemory $end
 $var wire 1 "N programCounter $end
 $var wire 32 "S io_testerDataMemDataWrite $end
 $var wire 1 "a alu $end
 $var wire 1 "l io_testerDataMemEnable $end
 $var wire 32 #1 signExtend $end
 $var wire 1 #B clock $end
 $var wire 1 #\ dataMemory $end
 $var wire 16 #] io_testerDataMemAddress $end
 $var wire 1 #n io_done $end
 $var wire 1 #{ controlUnit $end
 $var wire 1 $X reset $end
 $var wire 16 $n io_testerProgMemAddress $end
 $var wire 1 $p io_run $end
 $var wire 32 $u io_testerProgMemDataRead $end
  $scope module controlUnit $end
   $var wire 1 " _GEN_29 $end
   $var wire 1 % _GEN_56 $end
   $var wire 1 ) io_memToReg $end
   $var wire 1 * _GEN_14 $end
   $var wire 1 0 _GEN_41 $end
   $var wire 6 5 io_aluOp $end
   $var wire 1 6 io_aluSrc $end
   $var wire 1 8 _GEN_35 $end
   $var wire 1 ; _GEN_20 $end
   $var wire 6 < _GEN_17 $end
   $var wire 1 = _GEN_38 $end
   $var wire 1 ? _GEN_23 $end
   $var wire 1 Y _GEN_73 $end
   $var wire 6 ` _GEN_11 $end
   $var wire 6 k _GEN_55 $end
   $var wire 1 n _GEN_82 $end
   $var wire 1 s _GEN_76 $end
   $var wire 1 v _GEN_61 $end
   $var wire 1 "# _GEN_64 $end
   $var wire 1 "( _GEN_85 $end
   $var wire 1 ") _GEN_58 $end
   $var wire 1 ". _GEN_70 $end
   $var wire 6 "/ _GEN_79 $end
   $var wire 1 "1 _GEN_37 $end
   $var wire 1 "2 _GEN_43 $end
   $var wire 1 "6 _GEN_9 $end
   $var wire 1 "A _GEN_67 $end
   $var wire 6 "B _GEN_31 $end
   $var wire 1 "H _GEN_46 $end
   $var wire 1 "I _GEN_52 $end
   $var wire 1 "T _GEN_25 $end
   $var wire 1 "U _GEN_13 $end
   $var wire 1 "W _GEN_40 $end
   $var wire 1 "Y _GEN_34 $end
   $var wire 1 "Z _GEN_28 $end
   $var wire 6 "` _GEN_6 $end
   $var wire 1 "j _GEN_49 $end
   $var wire 1 "q io_writeReadReg $end
   $var wire 1 "r _GEN_22 $end
   $var wire 1 "u _GEN_78 $end
   $var wire 1 "~ _GEN_84 $end
   $var wire 1 #" io_regWrite $end
   $var wire 1 #$ _GEN_66 $end
   $var wire 1 #0 _GEN_72 $end
   $var wire 1 #? _GEN_60 $end
   $var wire 1 #@ _GEN_54 $end
   $var wire 1 #A _GEN_69 $end
   $var wire 1 #I _GEN_75 $end
   $var wire 1 #J _GEN_48 $end
   $var wire 1 #L _T $end
   $var wire 1 #P _GEN_81 $end
   $var wire 1 #U io_jump $end
   $var wire 1 #Z _GEN_36 $end
   $var wire 6 #[ _GEN_63 $end
   $var wire 1 #_ _GEN_21 $end
   $var wire 1 #` _GEN_57 $end
   $var wire 1 #e _GEN_42 $end
   $var wire 1 #j _GEN_8 $end
   $var wire 6 #k _GEN_24 $end
   $var wire 1 #l _GEN_18 $end
   $var wire 6 #q _GEN_39 $end
   $var wire 1 #x _GEN_45 $end
   $var wire 1 #} io_stop $end
   $var wire 1 $! _GEN_30 $end
   $var wire 1 $" _GEN_51 $end
   $var wire 1 $( _GEN_27 $end
   $var wire 1 $+ _GEN_33 $end
   $var wire 1 $7 _GEN_80 $end
   $var wire 1 $C _GEN_62 $end
   $var wire 1 $E _GEN_15 $end
   $var wire 1 $G _GEN_83 $end
   $var wire 1 $H _GEN_77 $end
   $var wire 6 $P io_opcode $end
   $var wire 1 $Q _GEN_50 $end
   $var wire 1 $R _GEN_44 $end
   $var wire 1 $W _GEN_65 $end
   $var wire 1 $_ io_writeToMemory $end
   $var wire 6 $a _GEN_71 $end
   $var wire 1 $d _GEN_59 $end
   $var wire 1 $f _GEN_68 $end
   $var wire 1 $k _GEN_53 $end
   $var wire 6 $q _GEN_47 $end
   $var wire 1 $t _GEN_74 $end
   $var wire 1 $x _GEN_32 $end
   $var wire 1 $y _GEN_4 $end
  $upscope $end
  $scope module dataMemory $end
   $var wire 32 $ _GEN_11 $end
   $var wire 32 / io_testerDataWrite $end
   $var wire 1 E clock $end
   $var wire 1 M io_testerEnable $end
   $var wire 32 y io_dataRead $end
   $var wire 32 z io_dataWrite $end
   $var wire 1 "b io_testerWriteEnable $end
   $var wire 32 "g _GEN_5 $end
   $var wire 16 #/ io_address $end
   $var wire 1 #8 io_writeEnable $end
   $var wire 16 #p io_testerAddress $end
   $var wire 32 #t memory $end
   $var wire 32 $1 io_testerDataRead $end
    $scope module memory $end
      $scope module _T_1 $end
       $var wire 16 + addr $end
       $var wire 16 @ pipeline_addr_0 $end
       $var wire 1 S en $end
       $var wire 32 "= data $end
       $var wire 32 #) pipeline_data_0 $end
       $var wire 1 #c pipeline_valid_0 $end
       $var wire 1 $# valid $end
       $var wire 1 $4 mask $end
       $var wire 1 $Z clk $end
      $upscope $end
      $scope module _T $end
       $var wire 1 9 clk $end
       $var wire 16 #. addr $end
       $var wire 1 #9 en $end
       $var wire 32 $M data $end
      $upscope $end
      $scope module _T_3 $end
       $var wire 1 P pipeline_valid_0 $end
       $var wire 1 U en $end
       $var wire 1 V mask $end
       $var wire 16 j pipeline_addr_0 $end
       $var wire 16 "^ addr $end
       $var wire 1 #+ clk $end
       $var wire 32 #^ pipeline_data_0 $end
       $var wire 32 #| data $end
       $var wire 1 $z valid $end
      $upscope $end
      $scope module _T_2 $end
       $var wire 1 o clk $end
       $var wire 16 | addr $end
       $var wire 32 ## data $end
       $var wire 1 #S en $end
      $upscope $end
    $upscope $end
  $upscope $end
  $scope module programCounter $end
   $var wire 1 D io_stop $end
   $var wire 1 R io_run $end
   $var wire 16 ] io_programCounter $end
   $var wire 16 g countReg $end
   $var wire 16 t mux2 $end
   $var wire 1 x io_jump $end
   $var wire 1 "* notRun $end
   $var wire 1 "\ runOrStop $end
   $var wire 1 "m clock $end
   $var wire 16 #4 adder $end
   $var wire 16 #< mux1 $end
   $var wire 1 $& reset $end
   $var wire 17 $9 _T $end
   $var wire 16 $U io_programCounterJump $end
  $upscope $end
  $scope module programMemory $end
   $var wire 16 ^ io_address $end
   $var wire 32 "3 io_testerDataRead $end
   $var wire 16 "E io_testerAddress $end
   $var wire 1 "n clock $end
   $var wire 1 #W io_testerEnable $end
   $var wire 32 #d _GEN_5 $end
   $var wire 32 $J io_testerDataWrite $end
   $var wire 32 $K io_instructionRead $end
   $var wire 32 $l memory $end
   $var wire 1 $r io_testerWriteEnable $end
    $scope module memory $end
      $scope module _T $end
       $var wire 32 T data $end
       $var wire 1 "V en $end
       $var wire 1 #, clk $end
       $var wire 16 $A addr $end
      $upscope $end
      $scope module _T_1 $end
       $var wire 1 X pipeline_valid_0 $end
       $var wire 32 Z data $end
       $var wire 16 f pipeline_addr_0 $end
       $var wire 1 q valid $end
       $var wire 1 #! en $end
       $var wire 32 #; pipeline_data_0 $end
       $var wire 1 #= mask $end
       $var wire 1 #X clk $end
       $var wire 16 #g addr $end
      $upscope $end
      $scope module _T_2 $end
       $var wire 32 "? data $end
       $var wire 16 $I addr $end
       $var wire 1 $g clk $end
       $var wire 1 $v en $end
      $upscope $end
    $upscope $end
  $upscope $end
  $scope module registerFile $end
   $var wire 32 ! io_writeData $end
   $var wire 32 # _GEN_4 $end
   $var wire 32 ' _GEN_99 $end
   $var wire 5 ( io_bSel $end
   $var wire 32 , _GEN_90 $end
   $var wire 32 - _GEN_78 $end
   $var wire 32 . regFile_2 $end
   $var wire 32 2 regFile_20 $end
   $var wire 32 3 regFile_14 $end
   $var wire 32 4 regFile_29 $end
   $var wire 32 7 _GEN_16 $end
   $var wire 32 : _GEN_84 $end
   $var wire 32 > _GEN_93 $end
   $var wire 32 A _GEN_51 $end
   $var wire 32 B regFile_5 $end
   $var wire 32 C _GEN_125 $end
   $var wire 32 G _GEN_66 $end
   $var wire 32 H _GEN_72 $end
   $var wire 32 J regFile_17 $end
   $var wire 32 K _GEN_87 $end
   $var wire 32 L regFile_23 $end
   $var wire 32 Q _GEN_54 $end
   $var wire 32 W regFile_11 $end
   $var wire 32 [ _GEN_81 $end
   $var wire 32 \ _GEN_48 $end
   $var wire 32 _ _GEN_75 $end
   $var wire 32 a _GEN_60 $end
   $var wire 32 b _GEN_33 $end
   $var wire 32 c _GEN_69 $end
   $var wire 32 d _GEN_113 $end
   $var wire 32 e _GEN_107 $end
   $var wire 32 h _GEN_3 $end
   $var wire 32 i _GEN_15 $end
   $var wire 32 l _GEN_63 $end
   $var wire 32 m _GEN_116 $end
   $var wire 32 p _GEN_21 $end
   $var wire 32 r _GEN_36 $end
   $var wire 32 u _GEN_122 $end
   $var wire 1 w clock $end
   $var wire 32 { _GEN_101 $end
   $var wire 32 } _GEN_57 $end
   $var wire 32 "! _GEN_42 $end
   $var wire 32 "$ _GEN_92 $end
   $var wire 32 "% regFile_4 $end
   $var wire 32 "& _GEN_6 $end
   $var wire 32 "' _GEN_39 $end
   $var wire 32 "+ _GEN_24 $end
   $var wire 32 ", _GEN_30 $end
   $var wire 32 "- _GEN_104 $end
   $var wire 32 "0 _GEN_18 $end
   $var wire 32 "4 _GEN_45 $end
   $var wire 32 "5 _GEN_110 $end
   $var wire 32 "7 _GEN_119 $end
   $var wire 32 "9 _GEN_12 $end
   $var wire 32 ": io_b $end
   $var wire 32 "; _GEN_9 $end
   $var wire 32 "< _GEN_80 $end
   $var wire 32 "> _GEN_74 $end
   $var wire 32 "@ regFile_19 $end
   $var wire 32 "D regFile_7 $end
   $var wire 32 "F regFile_31 $end
   $var wire 32 "K _GEN_0 $end
   $var wire 32 "L regFile_25 $end
   $var wire 32 "O _GEN_27 $end
   $var wire 32 "Q regFile_10 $end
   $var wire 32 "R _GEN_89 $end
   $var wire 32 "X _GEN_98 $end
   $var wire 32 "[ regFile_1 $end
   $var wire 32 "_ _GEN_77 $end
   $var wire 32 "c _GEN_62 $end
   $var wire 32 "d _GEN_83 $end
   $var wire 32 "e regFile_13 $end
   $var wire 32 "h _GEN_56 $end
   $var wire 32 "k regFile_28 $end
   $var wire 32 "o _GEN_50 $end
   $var wire 32 "p _GEN_59 $end
   $var wire 32 "s _GEN_124 $end
   $var wire 32 "v _GEN_86 $end
   $var wire 32 "w regFile_16 $end
   $var wire 32 "x _GEN_44 $end
   $var wire 32 "y _GEN_71 $end
   $var wire 32 "z regFile_22 $end
   $var wire 32 "{ _GEN_38 $end
   $var wire 32 "| _GEN_65 $end
   $var wire 32 "} _GEN_118 $end
   $var wire 32 #% _GEN_68 $end
   $var wire 32 #& _GEN_112 $end
   $var wire 32 #' _GEN_26 $end
   $var wire 32 #( _GEN_32 $end
   $var wire 32 #* _GEN_8 $end
   $var wire 32 #- _GEN_106 $end
   $var wire 5 #3 io_aSel $end
   $var wire 32 #5 _GEN_53 $end
   $var wire 32 #6 _GEN_47 $end
   $var wire 32 #7 io_a $end
   $var wire 32 #: _GEN_29 $end
   $var wire 32 #> regFile_9 $end
   $var wire 32 #C _GEN_121 $end
   $var wire 32 #D regFile_0 $end
   $var wire 32 #E _GEN_2 $end
   $var wire 32 #F _GEN_35 $end
   $var wire 32 #G _GEN_115 $end
   $var wire 32 #H _GEN_109 $end
   $var wire 32 #K _GEN_20 $end
   $var wire 32 #M _GEN_100 $end
   $var wire 32 #N _GEN_14 $end
   $var wire 32 #O _GEN_41 $end
   $var wire 32 #Q _GEN_17 $end
   $var wire 32 #R _GEN_23 $end
   $var wire 32 #T _GEN_85 $end
   $var wire 32 #V _GEN_5 $end
   $var wire 32 #Y regFile_21 $end
   $var wire 32 #a regFile_3 $end
   $var wire 32 #h _GEN_91 $end
   $var wire 32 #i _GEN_103 $end
   $var wire 32 #m regFile_6 $end
   $var wire 32 #o _GEN_94 $end
   $var wire 32 #r _GEN_67 $end
   $var wire 1 #s reset $end
   $var wire 32 #u regFile_30 $end
   $var wire 32 #v _GEN_73 $end
   $var wire 32 #w _GEN_88 $end
   $var wire 32 #z regFile_18 $end
   $var wire 32 #~ _GEN_11 $end
   $var wire 32 $% regFile_24 $end
   $var wire 1 $' io_writeEnable $end
   $var wire 32 $) _GEN_76 $end
   $var wire 32 $* _GEN_120 $end
   $var wire 32 $- _GEN_61 $end
   $var wire 32 $. _GEN_97 $end
   $var wire 32 $0 _GEN_55 $end
   $var wire 32 $2 _GEN_82 $end
   $var wire 32 $3 regFile_27 $end
   $var wire 32 $5 _GEN_40 $end
   $var wire 32 $6 _GEN_49 $end
   $var wire 32 $8 regFile_12 $end
   $var wire 32 $: _GEN_43 $end
   $var wire 32 $; _GEN_79 $end
   $var wire 32 $< _GEN_123 $end
   $var wire 32 $= _GEN_117 $end
   $var wire 32 $> _GEN_37 $end
   $var wire 5 $? io_writeSel $end
   $var wire 32 $@ regFile_15 $end
   $var wire 32 $B _GEN_22 $end
   $var wire 32 $D _GEN_70 $end
   $var wire 32 $N _GEN_58 $end
   $var wire 32 $O _GEN_102 $end
   $var wire 32 $S _GEN_52 $end
   $var wire 32 $T _GEN_111 $end
   $var wire 32 $V _GEN_25 $end
   $var wire 32 $Y _GEN_126 $end
   $var wire 32 $[ _GEN_10 $end
   $var wire 32 $\ _GEN_31 $end
   $var wire 32 $] _GEN_7 $end
   $var wire 32 $^ _GEN_46 $end
   $var wire 32 $` _GEN_105 $end
   $var wire 32 $c _GEN_19 $end
   $var wire 32 $e _GEN_28 $end
   $var wire 32 $h _GEN_1 $end
   $var wire 32 $i _GEN_34 $end
   $var wire 32 $j regFile_8 $end
   $var wire 32 $m regFile_26 $end
   $var wire 32 $s _GEN_108 $end
   $var wire 32 $w _GEN_13 $end
   $var wire 32 ${ _GEN_114 $end
  $upscope $end
  $scope module alu $end
   $var wire 1 1 _GEN_1 $end
   $var wire 32 F _GEN_4 $end
   $var wire 64 N _GEN_12 $end
   $var wire 1 ~ _GEN_15 $end
   $var wire 32 "8 io_oper1 $end
   $var wire 32 "M io_result $end
   $var wire 64 "P _GEN_6 $end
   $var wire 1 "] _GEN_9 $end
   $var wire 64 "f _GEN_14 $end
   $var wire 1 "i _T $end
   $var wire 1 "t _GEN_3 $end
   $var wire 1 #2 _GEN_11 $end
   $var wire 1 #b io_comparisonResult $end
   $var wire 32 #f _GEN_2 $end
   $var wire 1 #y _GEN_5 $end
   $var wire 64 $$ _GEN_10 $end
   $var wire 64 $, _GEN_8 $end
   $var wire 1 $/ _GEN_13 $end
   $var wire 6 $F io_sel $end
   $var wire 64 $L _GEN_16 $end
   $var wire 32 $b io_oper2 $end
   $var wire 1 $o _GEN_7 $end
  $upscope $end
$upscope $end
$enddefinitions $end
$dumpvars
b0000000000000000 t
0o
b00000000000000000000000000000000 ${
0$v
b00000000000000000000000000000000 $^
0"1
b00000000000000000000000000000000 #h
0=
0#c
b00000000000000000000000000000000 #K
b00000000000000000000000000000000 #6
0R
b00000000000000000000000000000000 r
b00000000000000000000000000000000 "M
b000000 k
b00000000000000000000000000000000 "8
b000000 "`
0#W
b00000000000000000000000000000000 #*
b00000000000000000000000000000000 "4
b0000000000000000 @
b00000000000000000000000000000000 Q
b000000 5
0$f
0~
0"r
0#S
b0000000000000000 f
b00000000000000000000000000000000 b
b00000000000000000000000000000000 $m
b00000000000000000000000000000000 #w
0#!
0D
b00000000000000000000000000000000 #o
0"#
b00000000000000000000000000000000 "y
b000000 $F
b00000000000000000000000000000000 $;
b00000000000000000000000000000000 "G
b00000000000000000000000000000000 #(
b0000000000000000 #/
0"n
b00000000000000000000000000000000 $i
0#2
b00000000000000000000000000000000 $T
b00000000000000000000000000000000 A
b00000000000000000000000000000000 #V
b00000000000000000000000000000000 $
b0000000000000000 #]
b00000000000000000000000000000000 "X
b00000000000000000000000000000000 "&
0$X
b0000000000000000000000000000000000000000000000000000000000000000 $,
0#b
0"l
0$C
0$&
0#0
b00000000000000000000000000000000 T
b000000 "B
0"2
b00000000000000000000000000000000 #i
b00000000000000000000000000000000 $J
b0000000000000000 $n
0#s
b0000000000000000000000000000000000000000000000000000000000000000 "f
b00000000000000000000000000000000 m
b00000 (
0#,
b00000000000000000000000000000000 e
0O
0"C
0#$
b00000000000000000000000000000000 #z
b00000000000000000000000000000000 $[
0#A
0$"
0".
b00000000000000000000000000000000 3
b00000000000000000000000000000000 "g
b00000000000000000000000000000000 #H
b00000000000000000000000000000000 $)
b00000000000000000000000000000000 "5
b00000000000000000000000000000000 $l
b00000000000000000000000000000000 #v
0"*
b0000000000000000 $I
b00000000000000000000000000000000 /
b00000000000000000000000000000000 "c
b00000000000000000000000000000000 #D
b00000000000000000000000000000000 $%
1$4
0?
b00000000000000000000000000000000 $K
0#P
b00000000000000000000000000000000 _
b00000000000000000000000000000000 $j
b00000000000000000000000000000000 "%
b00000000000000000000000000000000 B
b00000000000000000000000000000000 -
b00000000000000000000000000000000 "v
b00000000000000000000000000000000 $8
0$t
0;
b00000000000000000000000000000000 #f
0$_
b0000000000000000 |
0#L
b00000000000000000000000000000000 "S
b00000000000000000000000000000000 p
b00000000000000000000000000000000 [
0"N
b00000000000000000000000000000000 "!
b000000 $q
b00000000000000000000000000000000 >
b00000000000000000000000000000000 !
b0000000000000000000000000000000000000000000000000000000000000000 N
0#@
0$!
0$r
09
b00000000000000000000000000000000 2
0"~
b00000000000000000000000000000000 #G
b00000000000000000000000000000000 "Q
0#_
b000000 $P
b00000000000000000000000000000000 #u
b00000000000000000000000000000000 $V
b000000 $a
b000000 #k
b00000000000000000000000000000000 "w
b00000000000000000000000000000000 #C
0$Q
b00000000000000000000000000000000 .
0"]
b00000000000000000000000000000000 #&
b00000000000000000000000000000000 "0
b0000000000000000 j
b00000000000000000000000000000000 {
0"Y
b00000000000000000000000000000000 ",
b00000000000000000000000000000000 "$
b00000000000000000000000000000000 ,
0#`
b0000000000000000 ^
0Y
b00000000000000000000000000000000 $e
0n
b00000000000000000000000000000000 #R
b00000000000000000000000000000000 $3
b00000000000000000000000000000000 #5
b00000000000000000000000000000000 "?
b0000000000000000 #<
b00000000000000000000000000000000 "7
0#\
0U
0"I
0M
b00000000000000000000000000000000 $Y
b00000000000000000000000000000000 $D
08
b00000000000000000000000000000000 #N
0#{
b00000000000000000000000000000000 "e
b00000000000000000000000000000000 #1
b00000000000000000000000000000000 #F
b00000000000000000000000000000000 "3
b0000000000000000000000000000000000000000000000000000000000000000 $$
0#Z
0"q
0"\
b00000000000000000000000000000000 a
b00000000000000000000000000000000 L
b00000000000000000000000000000000 z
0"m
0#9
0$/
b00000000000000000000000000000000 $h
b00000000000000000000000000000000 #r
b00000000000000000000000000000000 $S
b00000000000000000000000000000000 H
0*
b00000000000000000000000000000000 $6
b00000000000000000000000000000000 "_
b00000000000000000000000000000000 ##
b000000 `
b0000000000000000 ]
0X
b00000000000000000000000000000000 $O
0""
b0000000000000000 +
b00000000000000000000000000000000 '
b00000000000000000 $9
b00000000000000000000000000000000 "p
b00000000000000000000000000000000 #Q
b00000000000000000000000000000000 $2
b0000000000000000 $A
b00000000000000000000000000000000 ">
b0000000000000000 "E
0$x
b0000000000000000000000000000000000000000000000000000000000000000 $L
0$p
b0000000000000000000000000000000000000000000000000000000000000000 "P
b00000000000000000000000000000000 "d
b00000000000000000000000000000000 l
b00000000000000000000000000000000 $w
b00000000000000000000000000000000 #E
0"J
0#+
b00000000000000000000000000000000 :
b00000000000000000000000000000000 #d
0$W
0#n
b00000000000000000000000000000000 }
b00000000000000000000000000000000 h
b00000000000000000000000000000000 $s
b00000000000000000000000000000000 K
0")
b0000000000000000 #g
0x
1#=
0#l
b00000000000000000000000000000000 "s
b00000000000000000000000000000000 #T
b00000000000000000000000000000000 $5
0)
b00000000000000000000000000000000 $c
0#}
0%
b00000000000000000000000000000000 "o
b00000000000000000000000000000000 $1
0v
0"j
0"U
b00000000000000000000000000000000 "R
b00000000000000000000000000000000 Z
b00000000000000000000000000000000 "=
b000000 #[
0$o
0#y
0$Z
06
0$E
b00000000000000000000000000000000 #a
0$(
b00000000000000000000000000000000 $B
b00000000000000000000000000000000 "k
b00000000000000000000000000000000 $-
b00000000000000000000000000000000 "9
0#X
0"Z
0I
b00000000000000000000000000000000 #t
0"(
b00000000000000000000000000000000 $@
b00000000000000000000000000000000 J
b00000000000000000000000000000000 "L
b00000000000000000000000000000000 i
b00000000000000000000000000000000 #-
b00000000000000000000000000000000 "D
b00000000000000000000000000000000 #%
b0000000000000000 #4
0w
b0000000000000000 g
0"V
0E
00
b00000000000000000000000000000000 "z
b00000000000000000000000000000000 $<
0"u
0$7
b00000000000000000000000000000000 #>
b00000000000000000000000000000000 #)
b00000000000000000000000000000000 "@
b00000000000000000000000000000000 "+
0$z
0$H
1V
0#J
0$+
0"i
0"T
b00000000000000000000000000000000 "<
b00000000000000000000000000000000 "'
0#x
0q
b00000 #3
0$'
b00000000000000000000000000000000 $u
b00000000000000000000000000000000 $`
0"H
0"
b00000000000000000000000000000000 #M
b00000000000000000000000000000000 $.
b00000000000000000000000000000000 #
b0000000000000000 "^
b00000000000000000000000000000000 "O
b00000000000000000000000000000000 ":
0"a
0#B
0$#
0P
b00000000000000000000000000000000 $\
b00000000000000000000000000000000 4
b000000 #q
b00000000000000000000000000000000 "}
b00000000000000000000000000000000 "h
b00000000000000000000000000000000 #^
b00000000000000000000000000000000 $*
b00000000000000000000000000000000 "K
0#j
0"t
0#U
b00000000000000000000000000000000 y
b00000000000000000000000000000000 d
0"W
0#8
b00000000000000000000000000000000 \
b00000000000000000000000000000000 G
01
b00000000000000000000000000000000 "{
b00000000000000000000000000000000 $=
0$y
0$d
0$G
b00000000000000000000000000000000 u
0#I
b00000000000000000000000000000000 ";
b00000000000000000000000000000000 C
0"6
b000000 <
b0000000000000000 $U
b00000000000000000000000000000000 &
b00000000000000000000000000000000 #m
b00000000000000000000000000000000 #;
b00000000000000000000000000000000 $N
0S
b00000000000000000000000000000000 #~
b00000000000000000000000000000000 7
b0000000000000000 #p
b00000000000000000000000000000000 #7
b000000 "/
0$k
b00000000000000000000000000000000 "|
b00000000000000000000000000000000 $>
0"b
b00000000000000000000000000000000 #|
b00000000000000000000000000000000 "-
b00000000000000000000000000000000 $]
0$g
0$R
b00000000000000000000000000000000 "x
b00000000000000000000000000000000 #Y
b00000000000000000000000000000000 $:
b00000 $?
0#?
b00000000000000000000000000000000 "F
b00000000000000000000000000000000 #'
b0000000000000000 #.
0"A
0#"
b00000000000000000000000000000000 c
b00000000000000000000000000000000 F
b00000000000000000000000000000000 "[
0#e
0s
b00000000000000000000000000000000 W
b00000000000000000000000000000000 $b
b00000000000000000000000000000000 $M
b00000000000000000000000000000000 #O
b00000000000000000000000000000000 #:
b00000000000000000000000000000000 $0
$end
#0
1#"
1$'
1$E
1#s
1v
1$y
1$k
1#A
b00000000000000001 $9
1$H
b0000000000000001 #4
1"
1"6
1"i
1$X
1"(
b0000000000000001 #<
1"1
1"\
1#L
1#S
1"r
1$v
1"*
1$&
1#x
#1
1"m
1#X
1$Z
1w
1o
19
1"n
1E
1#+
1$g
1#,
1#B
#6
0"m
0#X
0$Z
0w
0o
09
0"n
0E
0#+
0$g
0#,
0#B
#11
1"m
1#X
1$Z
1w
1o
19
1"n
1E
1#+
1$g
1#,
1#B
#16
0"m
0#X
0$Z
0w
0o
09
0"n
0E
0#+
0$g
0#,
0#B
#21
1"m
1#X
1$Z
1w
1o
19
1"n
1E
1#+
1$g
1#,
1#B
#26
0"m
0#X
0$Z
0w
0o
09
0"n
0E
0#+
0$g
0#,
0#B
#31
1"m
1#X
1$Z
1w
1o
19
1"n
1E
1#+
1$g
1#,
1#B
#36
0"m
0#X
0$Z
0w
0o
09
0"n
0E
0#+
0$g
0#,
0#B
#41
1"m
1#X
1$Z
1w
1o
19
1"n
1E
1#+
1$g
1#,
1#B
#46
0"m
0$Z
0#s
0w
1S
1#9
0o
0"n
0E
0#+
0#,
1M
0#B
1$#
0#X
1"b
0$X
09
1I
0$g
1"l
0#S
0$&
#51
1#c
1"m
1#X
1$Z
1w
1o
19
1"n
1E
1#+
1$g
1#,
1#B
#56
0"m
0$Z
b0000000000000001 #]
0w
0o
0"n
0E
0#+
0#,
0#B
0#X
09
b0000000000000001 #.
b0000000000000001 #p
b0000000000000001 +
0$g
#61
1"m
1#X
1$Z
b0000000000000001 @
1w
1o
19
1"n
1E
1#+
1$g
1#,
1#B
#66
0"m
0$Z
b0000000000000010 #]
0w
0o
0"n
0E
0#+
0#,
0#B
0#X
09
b0000000000000010 #.
b0000000000000010 #p
b0000000000000010 +
0$g
#71
1"m
1#X
1$Z
b0000000000000010 @
1w
1o
19
1"n
1E
1#+
1$g
1#,
1#B
#76
0"m
0$Z
b0000000000000011 #]
0w
0o
0"n
0E
0#+
0#,
0#B
0#X
09
b0000000000000011 #.
b0000000000000011 #p
b0000000000000011 +
0$g
#81
1"m
1#X
1$Z
b0000000000000011 @
1w
1o
19
1"n
1E
1#+
1$g
1#,
1#B
#86
0"m
0$Z
b0000000000000100 #]
0w
0o
0"n
0E
0#+
0#,
0#B
0#X
09
b0000000000000100 #.
b0000000000000100 #p
b0000000000000100 +
0$g
#91
1"m
1#X
1$Z
b0000000000000100 @
1w
1o
19
1"n
1E
1#+
1$g
1#,
1#B
#96
0"m
0$Z
b0000000000000101 #]
0w
0o
0"n
0E
0#+
0#,
0#B
0#X
09
b0000000000000101 #.
b0000000000000101 #p
b0000000000000101 +
0$g
#101
1"m
1#X
1$Z
b0000000000000101 @
1w
1o
19
1"n
1E
1#+
1$g
1#,
1#B
#106
0"m
0$Z
b0000000000000110 #]
0w
0o
0"n
0E
0#+
0#,
0#B
0#X
09
b0000000000000110 #.
b0000000000000110 #p
b0000000000000110 +
0$g
#111
1"m
1#X
1$Z
b0000000000000110 @
1w
1o
19
1"n
1E
1#+
1$g
1#,
1#B
#116
0"m
0$Z
b0000000000000111 #]
0w
0o
0"n
0E
0#+
0#,
0#B
0#X
09
b0000000000000111 #.
b0000000000000111 #p
b0000000000000111 +
0$g
#121
1"m
1#X
1$Z
b0000000000000111 @
1w
1o
19
1"n
1E
1#+
1$g
1#,
1#B
#126
0"m
0$Z
b0000000000001000 #]
0w
0o
0"n
0E
0#+
0#,
0#B
0#X
09
b0000000000001000 #.
b0000000000001000 #p
b0000000000001000 +
0$g
#131
1"m
1#X
1$Z
b0000000000001000 @
1w
1o
19
1"n
1E
1#+
1$g
1#,
1#B
#136
0"m
0$Z
b0000000000001001 #]
0w
0o
0"n
0E
0#+
0#,
0#B
0#X
09
b0000000000001001 #.
b0000000000001001 #p
b0000000000001001 +
0$g
#141
1"m
1#X
1$Z
b0000000000001001 @
1w
1o
19
1"n
1E
1#+
1$g
1#,
1#B
#146
0"m
0$Z
b0000000000001010 #]
0w
0o
0"n
0E
0#+
0#,
0#B
0#X
09
b0000000000001010 #.
b0000000000001010 #p
b0000000000001010 +
0$g
#151
1"m
1#X
1$Z
b0000000000001010 @
1w
1o
19
1"n
1E
1#+
1$g
1#,
1#B
#156
0"m
0$Z
b0000000000001011 #]
0w
0o
0"n
0E
0#+
0#,
0#B
0#X
09
b0000000000001011 #.
b0000000000001011 #p
b0000000000001011 +
0$g
#161
1"m
1#X
1$Z
b0000000000001011 @
1w
1o
19
1"n
1E
1#+
1$g
1#,
1#B
#166
0"m
0$Z
b0000000000001100 #]
0w
0o
0"n
0E
0#+
0#,
0#B
0#X
09
b0000000000001100 #.
b0000000000001100 #p
b0000000000001100 +
0$g
#171
1"m
1#X
1$Z
b0000000000001100 @
1w
1o
19
1"n
1E
1#+
1$g
1#,
1#B
#176
0"m
0$Z
b0000000000001101 #]
0w
0o
0"n
0E
0#+
0#,
0#B
0#X
09
b0000000000001101 #.
b0000000000001101 #p
b0000000000001101 +
0$g
#181
1"m
1#X
1$Z
b0000000000001101 @
1w
1o
19
1"n
1E
1#+
1$g
1#,
1#B
#186
0"m
0$Z
b0000000000001110 #]
0w
0o
0"n
0E
0#+
0#,
0#B
0#X
09
b0000000000001110 #.
b0000000000001110 #p
b0000000000001110 +
0$g
#191
1"m
1#X
1$Z
b0000000000001110 @
1w
1o
19
1"n
1E
1#+
1$g
1#,
1#B
#196
0"m
0$Z
b0000000000001111 #]
0w
0o
0"n
0E
0#+
0#,
0#B
0#X
09
b0000000000001111 #.
b0000000000001111 #p
b0000000000001111 +
0$g
#201
1"m
1#X
1$Z
b0000000000001111 @
1w
1o
19
1"n
1E
1#+
1$g
1#,
1#B
#206
0"m
0$Z
b0000000000010000 #]
0w
0o
0"n
0E
0#+
0#,
0#B
0#X
09
b0000000000010000 #.
b0000000000010000 #p
b0000000000010000 +
0$g
#211
1"m
1#X
1$Z
b0000000000010000 @
1w
1o
19
1"n
1E
1#+
1$g
1#,
1#B
#216
0"m
0$Z
b0000000000010001 #]
0w
0o
0"n
0E
0#+
0#,
0#B
0#X
09
b0000000000010001 #.
b0000000000010001 #p
b0000000000010001 +
0$g
#221
1"m
1#X
1$Z
b0000000000010001 @
1w
1o
19
1"n
1E
1#+
1$g
1#,
1#B
#226
0"m
0$Z
b0000000000010010 #]
0w
0o
0"n
0E
0#+
0#,
0#B
0#X
09
b0000000000010010 #.
b0000000000010010 #p
b0000000000010010 +
0$g
#231
1"m
1#X
1$Z
b0000000000010010 @
1w
1o
19
1"n
1E
1#+
1$g
1#,
1#B
