generated/ProgramCounter.vcd
$date
2022-10-19T14:32+0000
$end
$version
0.2
$end
$comment

$end
$timescale 1ns  $end
$scope module ProgramCounter $end
 $var wire 1 ! notRun $end
 $var wire 17 " _T $end
 $var wire 16 # mux2 $end
 $var wire 1 $ io_jump $end
 $var wire 1 % io_stop $end
 $var wire 16 & io_programCounter $end
 $var wire 1 ' runOrStop $end
 $var wire 1 ( clock $end
 $var wire 16 ) mux1 $end
 $var wire 16 * io_programCounterJump $end
 $var wire 16 + countReg $end
 $var wire 16 , adder $end
 $var wire 1 - reset $end
 $var wire 1 . io_run $end
$upscope $end
$enddefinitions $end
$dumpvars
0%
b0000000000000000 +
0-
b0000000000000000 ,
0'
0.
b0000000000000000 &
0!
0(
b0000000000000000 )
0$
b0000000000000000 #
b00000000000000000 "
b0000000000000000 *
$end
#0
1!
1-
b00000000000000001 "
1'
b0000000000000001 ,
b0000000000000001 )
#1
1(
#6
0(
#11
1(
#16
0(
#21
1(
#26
0(
#31
1(
#36
0(
#41
1(
#46
0!
0-
1.
b0000000000000001 #
0'
0(
#51
b00000000000000010 "
b0000000000000001 &
b0000000000000010 #
b0000000000000001 +
1(
b0000000000000010 ,
b0000000000000010 )
#56
0(
#61
b00000000000000011 "
b0000000000000010 &
b0000000000000011 #
b0000000000000010 +
1(
b0000000000000011 ,
b0000000000000011 )
#66
0(
#71
b00000000000000100 "
b0000000000000011 &
b0000000000000100 #
b0000000000000011 +
1(
b0000000000000100 ,
b0000000000000100 )
#76
0(
#81
b00000000000000101 "
b0000000000000100 &
b0000000000000101 #
b0000000000000100 +
1(
b0000000000000101 ,
b0000000000000101 )
#86
0(
#91
b00000000000000110 "
b0000000000000101 &
b0000000000000110 #
b0000000000000101 +
1(
b0000000000000110 ,
b0000000000000110 )
#96
1%
b0000000000000101 #
1'
0(
#101
1(
#106
0(
#111
1(
#116
0(
#121
1(
#126
0(
#131
1(
#136
0(
#141
1(
#146
1!
0%
0.
0(
#151
1(
#156
0(
#161
1(
#166
0(
#171
1(
#176
0(
#181
1(
#186
0(
#191
1(
#196
0!
1.
b0000000000011110 #
b0000000000011110 *
0'
1$
0(
b0000000000011110 )
#201
b00000000000011111 "
b0000000000011110 &
b0000000000011110 +
1(
b0000000000011111 ,
#206
b0000000000011111 #
b0000000000000000 *
0$
0(
b0000000000011111 )
#211
b00000000000100000 "
b0000000000011111 &
b0000000000100000 #
b0000000000011111 +
1(
b0000000000100000 ,
b0000000000100000 )
#216
0(
#221
b00000000000100001 "
b0000000000100000 &
b0000000000100001 #
b0000000000100000 +
1(
b0000000000100001 ,
b0000000000100001 )
#226
0(
#231
b00000000000100010 "
b0000000000100001 &
b0000000000100010 #
b0000000000100001 +
1(
b0000000000100010 ,
b0000000000100010 )
#236
0(
#241
b00000000000100011 "
b0000000000100010 &
b0000000000100011 #
b0000000000100010 +
1(
b0000000000100011 ,
b0000000000100011 )
#246
0(
#251
b00000000000100100 "
b0000000000100011 &
b0000000000100100 #
b0000000000100011 +
1(
b0000000000100100 ,
b0000000000100100 )
